Assignment 4: Sensitivity Analysis
…
cleaned <- 
  result %>% 
  mutate(
    iteration = result$X1 %>% str_sub(6) %>% as.numeric(),
    evaporation = result$X2 %>% str_sub(23) %>% as.numeric(),
    cycle = result$X3 %>% str_sub(7,10) %>% as.numeric(),
    food_remaining = result$X4 %>% str_sub(16,20) %>% as.numeric()
  ) %>% 
  select(iteration, evaporation, cycle, food_remaining) %>%  # clean variables
  arrange(iteration) %>% 
  ungroup

cleaned

# A tibble: 30,912 × 4
   iteration evaporation cycle food_remaining
       <dbl>       <dbl> <dbl>          <dbl>
 1         0         0.5     0             21
 2         0         0.5     1             21
 3         0         0.5     2             21
 4         0         0.5     3             21
 5         0         0.5     4             21
 6         0         0.5     5             21
 7         0         0.5     6             21
 8         0         0.5     7             21
 9         0         0.5     8             21
10         0         0.5     9             21
# … with 30,902 more rows
…
